33: j3D3Xj.jxbcTa.join(',')<Esc>kcib*a<Esc>ZZ
35: j3D%cib*a<Esc>^3Xj.f}cfd.join(',')<Esc>+XZZ
35: j3D3X%cib*a<Esc>+2Xf}C.join(',')}"<Esc>+XZZ
36: j3D3Xj.f}cfd.join(',')<Esc>+X/(<CR>cib*a<Esc>ZZ
36: j3dd3XfaC*a)<Esc>+2Xf}C.join(',')}"<Esc>+XZZ
